{
    "override_defs": {
        "Flavors": [
                    
                    {
                    "name": "Host (mobitv)",
                    "values": [{
                               "prod-msp": "data-prod-msp.mobitv.com;auth-prod-msp.mobitv.com"
                               }, {
                               "staging-msp": "data-staging-msp-ops.mobitv.com;auth-staging-msp-ops.mobitv.com"
                               }, {
                               "ppd-msp": "msfrn-ppd-msp-qa.mobitv.com"
                               }, {
                               "func-msp": "msfrn-func-msp-qa.mobitv.com"
                               }, {
                               "ci-msp": "msfrn-ci-msp-dev.mobitv.com"
                               }, {
                               "integration-msp": "data-integration-msp.mobitv.com;auth-integration-msp.mobitv.com"
                               }, {
                               "connectcdn.net integration-msp": "data-integration-msp-edge.connectcdn.net"
                               }, {
                               "cspire.tv staging": "data-staging.cspire.tv"
                               }, {
                               "cspire.tv prod": "data-production.cspire.tv"
                               }, {
                               "mobitv.paytv": "data-paytv.mobitv.com"
                               }]
                    },
                    
                    {
                    "name": "Host (cspire)",
                    "values": [{
                               "integration-msp": "data-integration-msp.mobitv.com;auth-integration-msp.mobitv.com"
                               }, {
                               "connectcdn.net integration-msp": "data-integration-msp-edge.connectcdn.net"
                               }, {
                               "cspire.tv staging": "data-staging.cspire.tv"
                               }, {
                               "cspire.tv prod": "data-production.cspire.tv"
                               }]
                    },
                    
                    {
                    "name": "Host (ezv) (citizensfiber) (hickory) (metronet)",
                    "values": [{
                               "integration-msp": "data-integration-msp.mobitv.com;auth-integration-msp.mobitv.com"
                               }, {
                               "connectcdn.net integration-msp": "data-integration-msp-edge.connectcdn.net"
                               }, {
                               "mobitv.paytv": "data-paytv.mobitv.com"
                               }]
                    },
                    
                    {
                    "name": "Host (sprint)",
                    "values": [{
                               "prod-msp": "data-prod-msp.mobitv.com;auth-prod-msp-sprint.mobitv.com"
                               }, {
                               "staging-msp": "data-staging-msp-ops.mobitv.com;auth-staging-msp-ops.mobitv.com"
                               }, {
                               "ppd-msp": "msfrn-ppd-msp-qa.mobitv.com"
                               }, {
                               "func-msp": "msfrn-func-msp-qa.mobitv.com"
                               }, {
                               "ci-msp": "msfrn-ci-msp-dev.mobitv.com"
                               }, {
                               "integration-msp": "data-integration-msp.mobitv.com;auth-integration-msp.mobitv.com"
                               }]
                    },
                    
                    {
                    "name": "Host (tmobile)",
                    "values": [{
                               "prod-msp": "data-prod-msp.mobitv.com;auth-prod-msp-tmobile.mobitv.com"
                               }, {
                               "staging-msp": "data-staging-msp-ops.mobitv.com;auth-staging-msp-ops.mobitv.com"
                               }, {
                               "ppd-msp": "msfrn-ppd-msp-qa.mobitv.com"
                               }, {
                               "func-msp": "msfrn-func-msp-qa.mobitv.com"
                               }, {
                               "ci-msp": "msfrn-ci-msp-dev.mobitv.com"
                               }, {
                               "integration-msp": "data-integration-msp.mobitv.com;auth-integration-msp.mobitv.com"
                               }]
                    },
                    
                    {
                    "name": "Host (lookhu)",
                    "values": [{
                               "prod-msp": "data-prod-msp.mobitv.com;auth-prod-msp-lookhu.mobitv.com"
                               }, {
                               "staging-msp": "data-staging-msp-ops.mobitv.com;auth-staging-msp-ops.mobitv.com"
                               }, {
                               "ppd-msp": "msfrn-ppd-msp-qa.mobitv.com"
                               }, {
                               "func-msp": "msfrn-func-msp-qa.mobitv.com"
                               }, {
                               "ci-msp": "msfrn-ci-msp-dev.mobitv.com"
                               }, {
                               "integration-msp": "data-integration-msp.mobitv.com;auth-integration-msp.mobitv.com"
                               }]
                    }
                    ],
        "vid":
        
        {
            "name": "Vid (manual override)",
            "values": [{
                       "MobiTV Connect 7.0 ": "MobiTV,mobitv,connect,7.0"
                       }, {
                       "SprintConnect 7.0": "Sprint,sprint,connect,7.0"
                       }, {
                       "SprintSpot 7.0": "SprintSpot,sprint,spot,7.0"
                       }, {
                       "T-Mobile TV 7.0": "TMobile,tmobile,connect,7.0"
                       }, {
                       "C-Spire TV": "C-Spire,cspire,paytv,1.0"
                       }, {
                       "Boost 7.0": "Boost,boost,connect,7.0"
                       }, {
                       "Lookhu 7.0": "Lookhu,lookhu,connect,7.0"
                       }, {
                       "DirectLink 1.0": "directLink,ezv,paytv,1.0"
                       }, {
                       "MetroNet 1.0": "metronet,metronet,paytv,1.0"
                       }, {
                       "CableVision 1.0": "cablevision,cablevision,paytv,1.0"
                       }, {
                       "CitizensFiber 1.0": "citizensfiber,citizensfiber,paytv,1.0"
                       }, {
                       "DataVision 1.0": "datavision,datavision,paytv,1.0"
                       }, {
                       "Ebox 1.0": "ebox,ebox,paytv,1.0"
                       }, {
                       "Hickory 1.0": "hickory,hickory,paytv,1.0"
                       }, {
                       "Mobitv paytv  1.0": "mobitvpaytv,mobitv,paytv,1.0"
                       }, {
                       "Mobitv Connect  1.0": "mobitvconnect,mobitv,connect,1.0"
                       }, {
                       "Mobi Connect  1.0": "mobiconnect,mobi,connect,1.0"
                       }]
        }
    }
}
